<?xml version="1.0" encoding="utf-8"?>
<!-- Generator: Adobe Illustrator 15.0.0, SVG Export Plug-In . SVG Version: 6.00 Build 0)  -->
<!DOCTYPE svg PUBLIC "-//W3C//DTD SVG 1.1//EN" "http://www.w3.org/Graphics/SVG/1.1/DTD/svg11.dtd" [
	<!ENTITY ns_extend "http://ns.adobe.com/Extensibility/1.0/">
	<!ENTITY ns_ai "http://ns.adobe.com/AdobeIllustrator/10.0/">
	<!ENTITY ns_graphs "http://ns.adobe.com/Graphs/1.0/">
	<!ENTITY ns_vars "http://ns.adobe.com/Variables/1.0/">
	<!ENTITY ns_imrep "http://ns.adobe.com/ImageReplacement/1.0/">
	<!ENTITY ns_sfw "http://ns.adobe.com/SaveForWeb/1.0/">
	<!ENTITY ns_custom "http://ns.adobe.com/GenericCustomNamespace/1.0/">
	<!ENTITY ns_adobe_xpath "http://ns.adobe.com/XPath/1.0/">
]>
<svg version="1.1" id="Layer_1" xmlns:x="&ns_extend;" xmlns:i="&ns_ai;" xmlns:graph="&ns_graphs;"
	 xmlns="http://www.w3.org/2000/svg" xmlns:xlink="http://www.w3.org/1999/xlink" x="0px" y="0px" width="269.917px"
	 height="16.936px" viewBox="0 0 269.917 16.936" enable-background="new 0 0 269.917 16.936" xml:space="preserve">
<metadata>
	<sfw  xmlns="&ns_sfw;">
		<slices></slices>
		<sliceSourceBounds  height="17.436" width="269.455" x="259.271" y="-220.717" bottomLeftOrigin="true"></sliceSourceBounds>
	</sfw>
</metadata>
<g>
	<path fill="#FFFFFF" stroke="#000000" stroke-width="0.5" stroke-linecap="square" stroke-linejoin="bevel" d="M25,0.258
		l6.391,16.42h-4.632l-1.304-3.448h-5.028l-1.28,3.448h-4.516l6.436-16.42H25z M23.049,5.135l-1.862,4.646h3.578L23.049,5.135z"/>
	<path fill="#FFFFFF" stroke="#000000" stroke-width="0.5" stroke-linecap="square" stroke-linejoin="bevel" d="M37.455,0.258
		v12.667h6.591v3.753H33.069V0.258H37.455z"/>
	<path fill="#FFFFFF" stroke="#000000" stroke-width="0.5" stroke-linecap="square" stroke-linejoin="bevel" d="M50.356,0.258
		v12.667h6.591v3.753H45.97V0.258H50.356z"/>
	<path fill="#FFFFFF" stroke="#000000" stroke-width="0.5" stroke-linecap="square" stroke-linejoin="bevel" d="M71.209,0.258v3.753
		h-7.952v2.815h7.366v3.378h-7.366v2.721h7.952v3.753H58.871V0.258H71.209z"/>
	<path fill="#FFFFFF" stroke="#000000" stroke-width="0.5" stroke-linecap="square" stroke-linejoin="bevel" d="M89.482,0.258V0.68
		l-6.357,8.28v7.718h-4.386V8.969l-6.35-8.312V0.258h4.802l3.74,5.321l3.76-5.321H89.482z"/>
	<path fill="#FFFFFF" stroke="#000000" stroke-width="0.5" stroke-linecap="square" stroke-linejoin="bevel" d="M103.462,0.258
		v3.753H95.51v2.815h7.366v3.378H95.51v2.721h7.952v3.753H91.124V0.258H103.462z"/>
	<path fill="#FFFFFF" stroke="#000000" stroke-width="0.5" stroke-linecap="square" stroke-linejoin="bevel" d="M118.539,0.258
		v2.656l-7.962,10.011h8.14v3.753h-13.606v-2.645l7.851-10.022h-7.131V0.258H118.539z"/>
	<path fill="#FFFFFF" stroke="#000000" stroke-width="0.5" stroke-linecap="square" stroke-linejoin="bevel" d="M122.485,2.357
		C124.112,0.786,126.23,0,128.842,0c2.611,0,4.734,0.782,6.369,2.346c1.634,1.563,2.451,3.604,2.451,6.122s-0.817,4.559-2.451,6.122
		c-1.634,1.564-3.757,2.346-6.369,2.346c-2.612,0-4.73-0.785-6.357-2.357c-1.626-1.571-2.439-3.608-2.439-6.11
		S120.859,3.929,122.485,2.357z M132.021,5.078c-0.821-0.868-1.881-1.302-3.179-1.302c-1.298,0-2.354,0.438-3.167,1.313
		c-0.813,0.876-1.22,2.002-1.22,3.378s0.406,2.502,1.22,3.378c0.813,0.876,1.868,1.313,3.167,1.313c1.298,0,2.357-0.434,3.179-1.302
		c0.821-0.868,1.231-1.998,1.231-3.39S132.842,5.946,132.021,5.078z"/>
	<path fill="#FFFFFF" stroke="#000000" stroke-width="0.5" stroke-linecap="square" stroke-linejoin="bevel" d="M153.988,0.258
		v16.42h-3.401l-6.216-8.749v8.749h-4.386V0.258h3.424l6.192,8.608V0.258H153.988z"/>
	<path fill="#FFFFFF" stroke="#000000" stroke-width="0.5" stroke-linecap="square" stroke-linejoin="bevel" d="M174.723,0.258
		l1.425,16.42h-4.286l-0.707-8.563l-3.314,8.399h-2.938l-3.314-8.397l-0.732,8.562h-4.357l1.45-16.42h4.259l4.141,10.11l4.117-10.11
		H174.723z"/>
	<path fill="#FFFFFF" stroke="#000000" stroke-width="0.5" stroke-linecap="square" stroke-linejoin="bevel" d="M191.073,0.258
		v3.753h-7.952v2.815h7.365v3.378h-7.365v2.721h7.952v3.753h-12.339V0.258H191.073z"/>
	<path fill="#FFFFFF" stroke="#000000" stroke-width="0.5" stroke-linecap="square" stroke-linejoin="bevel" d="M211.316,0.258
		l1.425,16.42h-4.286l-0.707-8.563l-3.314,8.399h-2.938l-3.314-8.397l-0.732,8.562h-4.357l1.45-16.42h4.259l4.141,10.11l4.117-10.11
		H211.316z"/>
	<path fill="#FFFFFF" stroke="#000000" stroke-width="0.5" stroke-linecap="square" stroke-linejoin="bevel" d="M216.946,2.357
		C218.572,0.786,220.691,0,223.302,0s4.734,0.782,6.368,2.346c1.635,1.563,2.452,3.604,2.452,6.122s-0.817,4.559-2.452,6.122
		c-1.634,1.564-3.757,2.346-6.368,2.346s-4.73-0.785-6.356-2.357c-1.627-1.571-2.439-3.608-2.439-6.11S215.319,3.929,216.946,2.357z
		 M226.481,5.078c-0.821-0.868-1.881-1.302-3.179-1.302s-2.354,0.438-3.167,1.313c-0.813,0.876-1.22,2.002-1.22,3.378
		s0.407,2.502,1.22,3.378c0.813,0.876,1.869,1.313,3.167,1.313s2.357-0.434,3.179-1.302c0.82-0.868,1.231-1.998,1.231-3.39
		S227.301,5.946,226.481,5.078z"/>
	<path fill="#FFFFFF" stroke="#000000" stroke-width="0.5" stroke-linecap="square" stroke-linejoin="bevel" d="M247.978,0.258
		l-5.911,16.42h-3.894l-5.864-16.42h4.715l3.12,10.532l3.096-10.532H247.978z"/>
	<path fill="#FFFFFF" stroke="#000000" stroke-width="0.5" stroke-linecap="square" stroke-linejoin="bevel" d="M254.078,0.258
		v16.42h-4.387V0.258H254.078z"/>
	<path fill="#FFFFFF" stroke="#000000" stroke-width="0.5" stroke-linecap="square" stroke-linejoin="bevel" d="M269.559,0.258
		v3.753h-7.952v2.815h7.365v3.378h-7.365v2.721h7.952v3.753H257.22V0.258H269.559z"/>
</g>
<g>
	<g>
		<path fill="#FFFFFF" d="M14.606,7.723l0.487-3.758l-2.076,0.004l0.367-3.023H9.593L9.226,3.977L7.313,3.98l0.368-3.035H3.89
			L3.521,3.987L1.575,3.991L1.088,7.75l1.978-0.004L2.836,9.642L0.842,9.646l-0.487,3.758l2.026-0.004L2.028,16.32h3.791
			l0.355-2.928l1.912-0.004L7.73,16.32h3.792l0.356-2.938l1.995-0.005l0.487-3.758l-2.027,0.004l0.23-1.896L14.606,7.723z
			 M8.541,9.631L6.628,9.634l0.23-1.896l1.913-0.003L8.541,9.631z"/>
	</g>
	<g>
		<path fill="none" stroke="#000000" stroke-width="0.5" stroke-linecap="square" stroke-linejoin="bevel" d="M14.606,7.723
			l0.487-3.758l-2.076,0.004l0.367-3.023H9.593L9.226,3.977L7.313,3.98l0.368-3.035H3.89L3.521,3.987L1.575,3.991L1.088,7.75
			l1.978-0.004L2.836,9.642L0.842,9.646l-0.487,3.758l2.026-0.004L2.028,16.32h3.791l0.355-2.928l1.912-0.004L7.73,16.32h3.792
			l0.356-2.938l1.995-0.005l0.487-3.758l-2.027,0.004l0.23-1.896L14.606,7.723z M8.541,9.631L6.628,9.634l0.23-1.896l1.913-0.003
			L8.541,9.631z"/>
	</g>
</g>
</svg>
