<?xml version="1.0" encoding="utf-8"?>
<!-- Generator: Adobe Illustrator 15.0.0, SVG Export Plug-In . SVG Version: 6.00 Build 0)  -->
<!DOCTYPE svg PUBLIC "-//W3C//DTD SVG 1.1//EN" "http://www.w3.org/Graphics/SVG/1.1/DTD/svg11.dtd">
<svg version="1.1" id="slim" xmlns="http://www.w3.org/2000/svg" xmlns:xlink="http://www.w3.org/1999/xlink" x="0px" y="0px"
	 width="20px" height="22px" viewBox="4 -1 20 22" enable-background="new 4 -1 20 22" xml:space="preserve">
<path fill="#EC1C24" d="M24,19.615c-0.683-1.32-0.683-2.873,0-4.195v-0.029c-0.434-0.701-0.703-1.496-0.703-2.346v-0.137
	c0-0.844,0.266-1.629,0.691-2.324c-0.155-0.46-0.242-0.969-0.242-1.53c0-0.577,0.091-1.1,0.254-1.569V-1l-1.949,1.051
	c-0.892,1.291-2.424,2.168-4.161,2.25c-0.007,0.004-0.015,0.007-0.021,0.01C17.715,2.5,17.554,2.68,17.385,2.836
	c-0.797,0.734-1.838,1.191-2.943,1.344c-0.787,0.433-1.572,0.861-2.314,1.27C11.4,5.846,10.66,6.252,9.92,6.656
	C9.191,7.479,8.158,8.004,7.041,8.229C6.854,8.331,6.666,8.434,6.479,8.535L4,9.886l2.479,1.349
	c0.186,0.102,0.371,0.207,0.557,0.309c1.082,0.232,2.076,0.748,2.791,1.543c0.703,0.23,1.35,0.592,1.879,1.08
	c0.6,0.338,1.205,0.678,1.793,1.014c2.587,1.479,5.262,3.006,7.955,4.453L24,21V19.615z M15.241,12.492
	c-1.501-0.855-3.038-1.734-4.583-2.599c1.076-0.587,2.146-1.174,3.195-1.749l0.119-0.066c2.174-1.189,4.4-2.409,6.638-3.623v11.076
	C18.81,14.529,17.014,13.504,15.241,12.492z"/>
</svg>
