<?xml version="1.0" encoding="utf-8"?>
<!-- Generator: Adobe Illustrator 15.0.0, SVG Export Plug-In . SVG Version: 6.00 Build 0)  -->
<!DOCTYPE svg PUBLIC "-//W3C//DTD SVG 1.1//EN" "http://www.w3.org/Graphics/SVG/1.1/DTD/svg11.dtd">
<svg version="1.1" id="slim" xmlns="http://www.w3.org/2000/svg" xmlns:xlink="http://www.w3.org/1999/xlink" x="0px" y="0px"
	 width="20px" height="20px" viewBox="-7.765 0 20 20" enable-background="new -7.765 0 20 20" xml:space="preserve">
<g>
	<path fill-rule="evenodd" clip-rule="evenodd" fill="#FFFFFF" d="M-5.199,0H9.668c1.41,0,2.565,1.154,2.565,2.565v14.867
		c0,1.411-1.155,2.567-2.565,2.567H-5.199c-1.412,0-2.566-1.156-2.566-2.567V2.565C-7.765,1.154-6.611,0-5.199,0L-5.199,0z
		 M6.802,2.221c-0.495,0-0.899,0.406-0.899,0.901v2.154c0,0.495,0.404,0.9,0.899,0.9h2.262c0.494,0,0.899-0.405,0.899-0.9V3.122
		c0-0.495-0.405-0.901-0.899-0.901H6.802L6.802,2.221z M9.974,8.456H8.213c0.166,0.545,0.256,1.121,0.256,1.718
		c0,3.326-2.782,6.022-6.217,6.022c-3.433,0-6.215-2.696-6.215-6.022c0-0.597,0.09-1.173,0.258-1.718h-1.84v8.449
		c0,0.438,0.359,0.795,0.796,0.795H9.179c0.437,0,0.795-0.356,0.795-0.795V8.456L9.974,8.456z M2.252,6.063
		c-2.218,0-4.017,1.742-4.017,3.892c0,2.15,1.799,3.894,4.017,3.894S6.27,12.105,6.27,9.955C6.27,7.806,4.47,6.063,2.252,6.063z"/>
</g>
</svg>
