<?xml version="1.0" encoding="utf-8"?>
<!-- Generator: Adobe Illustrator 15.0.0, SVG Export Plug-In . SVG Version: 6.00 Build 0)  -->
<!DOCTYPE svg PUBLIC "-//W3C//DTD SVG 1.1//EN" "http://www.w3.org/Graphics/SVG/1.1/DTD/svg11.dtd">
<svg version="1.1" id="Layer_1" xmlns="http://www.w3.org/2000/svg" xmlns:xlink="http://www.w3.org/1999/xlink" x="0px" y="0px"
	 width="50px" height="50px" viewBox="0 0 50 50" enable-background="new 0 0 50 50" xml:space="preserve">
<path fill="#E00000" d="M45.275,11.104c-2.408-3.85-5.999-6.997-10.219-8.883c-4.217-1.9-9.03-2.512-13.662-1.727
	C16.758,1.267,12.336,3.474,8.873,6.76c-3.472,3.274-5.98,7.625-7.044,12.367c-1.076,4.737-0.739,9.81,1.038,14.426
	c1.761,4.611,4.788,8.702,8.88,11.592c4.06,2.906,8.982,4.575,13.982,4.694c0,0,0-0.015,0-0.035c0,0.013,0.369,0.035,0.486,0.035
	c1.716,0,3.178-1.431,3.178-3.193c0-1.764-1.354-3.193-3.068-3.193c-0.09,0-0.159,0.019-0.247,0.026
	c-3.926,0.14-7.755-0.883-11.1-2.959c-3.332-2.062-6.065-5.156-7.71-8.795c-1.657-3.623-2.206-7.813-1.542-11.826
	c0.651-4.018,2.547-7.863,5.395-10.89c2.837-3.034,6.613-5.231,10.736-6.174c4.119-0.954,8.567-0.678,12.59,0.856
	c4.029,1.52,7.625,4.282,10.168,7.857c2.559,3.563,4.034,7.934,4.157,12.398C48.915,19.484,47.701,14.947,45.275,11.104z"/>
</svg>
