<?xml version="1.0" encoding="utf-8"?>
<!-- Generator: Adobe Illustrator 15.0.0, SVG Export Plug-In . SVG Version: 6.00 Build 0)  -->
<!DOCTYPE svg PUBLIC "-//W3C//DTD SVG 1.1//EN" "http://www.w3.org/Graphics/SVG/1.1/DTD/svg11.dtd">
<svg version="1.1" id="slim" xmlns="http://www.w3.org/2000/svg" xmlns:xlink="http://www.w3.org/1999/xlink" x="0px" y="0px"
	 width="16px" height="20px" viewBox="0 0 16 20" enable-background="new 0 0 16 20" xml:space="preserve">
<g>
	<path fill="#FFFFFF" d="M9.525,14.6c2.207,0,3.619-1.144,4.587-2.589c0.779-1.167,1.321-2.623,1.442-4.069
		c0.425-5.109-2.628-7.565-7.027-7.917c-0.401-0.032-0.804-0.035-1.184,0c-2.157,0.197-4.03,1.046-5.328,2.404
		C1.088,3.4,0.296,4.726,0.092,6.165c-0.376,2.658,0.376,5.032,2.737,5.438c0.198-0.358,0.444-0.728,0.37-1.333
		C3.12,9.624,2.504,9.134,2.348,8.384C2.002,6.726,2.589,5.443,3.272,4.315c1.233-1.394,2.759-2.494,4.956-2.479
		c2.745,0.021,4.601,1.987,4.588,5.031c-0.007,1.367-0.32,2.56-0.813,3.551c-0.44,0.887-1.18,1.887-2.294,2.109
		c-1.117,0.223-2.14-0.219-2.403-1C7.019,9.732,8.173,8.162,8.341,6.461C8.475,5.106,7.749,4.385,6.64,4.427
		C4.713,4.5,3.884,7.769,4.9,9.494C4.177,12.729,2.786,15.961,3.348,20c1.989-1.275,2.48-4.055,3.106-6.695
		C7.433,13.91,8.057,14.6,9.525,14.6z"/>
	<path fill="#FFFFFF" d="M6.454,13.305C5.828,15.945,5.336,18.725,3.348,20C2.786,15.961,4.177,12.729,4.9,9.494
		C3.884,7.769,4.713,4.5,6.64,4.427c1.109-0.042,1.835,0.68,1.701,2.034c-0.168,1.701-1.322,3.271-1.035,5.066
		c0.264,0.781,1.286,1.224,2.403,1c1.114-0.223,1.854-1.223,2.294-2.108c0.493-0.991,0.808-2.184,0.813-3.551
		c0.013-3.044-1.842-5.011-4.587-5.031C6.033,1.821,4.507,2.922,3.273,4.315C2.59,5.443,2.004,6.726,2.349,8.384
		C2.504,9.134,3.12,9.623,3.2,10.27c0.074,0.606-0.172,0.975-0.37,1.333c-2.361-0.406-3.113-2.78-2.737-5.438
		C0.296,4.726,1.088,3.4,2.016,2.429c1.298-1.357,3.171-2.207,5.328-2.404c0.38-0.035,0.782-0.032,1.184,0
		c4.399,0.351,7.452,2.807,7.027,7.917c-0.121,1.446-0.663,2.902-1.442,4.069c-0.968,1.445-2.38,2.589-4.587,2.589
		C8.057,14.6,7.433,13.91,6.454,13.305z"/>
</g>
</svg>

